module spectre.com/document_processor

go 1.21.4

require (
	cloud.google.com/go/compute v1.23.3 // indirect
	cloud.google.com/go/compute/metadata v0.2.3 // indirect
	github.com/golang/groupcache v0.0.0-20210331224755-41bb18bfe9da // indirect
	github.com/golang/protobuf v1.5.3 // indirect
	github.com/google/s2a-go v0.1.7 // indirect
	github.com/google/uuid v1.4.0 // indirect
	github.com/googleapis/enterprise-certificate-proxy v0.3.2 // indirect
	github.com/googleapis/gax-go/v2 v2.12.0 // indirect
	github.com/jung-kurt/gofpdf v1.16.2 // indirect
	github.com/rs/cors v1.10.1 // indirect
	go.opencensus.io v0.24.0 // indirect
	golang.org/x/crypto v0.15.0 // indirect
	golang.org/x/net v0.18.0 // indirect
	golang.org/x/oauth2 v0.14.0 // indirect
	golang.org/x/sys v0.14.0 // indirect
	golang.org/x/text v0.14.0 // indirect
	google.golang.org/api v0.151.0 // indirect
	google.golang.org/appengine v1.6.8 // indirect
	google.golang.org/genproto/googleapis/rpc v0.0.0-20231120223509-83a465c0220f // indirect
	google.golang.org/grpc v1.59.0 // indirect
	google.golang.org/protobuf v1.31.0 // indirect
)
